07:20
07:40
08:00
08:20
08:30
08:50
09:10
09:30
10:00
10:30
11:00
11:30
12:00
12:30
13:00
13:30
14:00
14:30
15:00
15:30
16:00
16:30
17:00
17:20
17:40
18:00
18:10
18:20
18:30
18:40
18:50
19:00
19:20
19:40
20:00
20:20
20:40
21:00
21:30