07:00
07:10
07:20
07:30
07:40
07:50
08:00
08:10
08:20
08:30
08:40
08:50
09:00
09:20
09:45
10:15
10:45
11:15
11:45
12:15
12:45
13:15
13:45
14:15
15:15
15:45
16:10
16:30
16:50
17:00
17:10
17:20
17:30
17:40
17:50
18:00
18:10
18:20
18:30
18:40
18:50
19:00
19:20
19:40
20:00
20:30